<svg width="728" height="728" viewBox="0 0 728 728" fill="none" xmlns="http://www.w3.org/2000/svg">
<circle opacity="0.1" cx="364" cy="364" r="364" fill="url(#paint0_linear)"/>
<circle opacity="0.1" cx="374" cy="364" r="281" fill="url(#paint1_linear)"/>
<ellipse opacity="0.1" cx="393.5" cy="364" rx="211.5" ry="211" fill="url(#paint2_linear)"/>
<defs>
<linearGradient id="paint0_linear" x1="622.44" y1="-32.76" x2="-596.96" y2="684.32" gradientUnits="userSpaceOnUse">
<stop offset="0.0677083" stop-color="#3FE682"/>
<stop offset="1" stop-color="#4A24E2"/>
</linearGradient>
<linearGradient id="paint1_linear" x1="573.51" y1="57.71" x2="-367.84" y2="611.28" gradientUnits="userSpaceOnUse">
<stop offset="0.0677083" stop-color="#3FE682"/>
<stop offset="1" stop-color="#4A24E2"/>
</linearGradient>
<linearGradient id="paint2_linear" x1="543.665" y1="134.01" x2="-163.997" y2="551.144" gradientUnits="userSpaceOnUse">
<stop offset="0.0677083" stop-color="#3FE682"/>
<stop offset="1" stop-color="#4A24E2"/>
</linearGradient>
</defs>
</svg>
