<svg width="136" height="109" viewBox="0 0 136 109" fill="none" xmlns="http://www.w3.org/2000/svg">
<circle opacity="0.2" cx="50" cy="50" r="50" fill="url(#paint0_linear)"/>
<path d="M73 40C73 39.4477 73.4477 39 74 39H135C135.552 39 136 39.4477 136 40V108C136 108.552 135.552 109 135 109H74C73.4477 109 73 108.552 73 108V40Z" fill="white"/>
<path fill-rule="evenodd" clip-rule="evenodd" d="M76 42V106H133V42H76ZM74 39C73.4477 39 73 39.4477 73 40V108C73 108.552 73.4477 109 74 109H135C135.552 109 136 108.552 136 108V40C136 39.4477 135.552 39 135 39H74Z" fill="#4D4D4D"/>
<path d="M56 30C56 29.4477 56.4477 29 57 29H118C118.552 29 119 29.4477 119 30V98C119 98.5523 118.552 99 118 99H57C56.4477 99 56 98.5523 56 98V30Z" fill="white"/>
<path fill-rule="evenodd" clip-rule="evenodd" d="M59 32V96H116V32H59ZM57 29C56.4477 29 56 29.4477 56 30V98C56 98.5523 56.4477 99 57 99H118C118.552 99 119 98.5523 119 98V30C119 29.4477 118.552 29 118 29H57Z" fill="#4D4D4D"/>
<circle cx="76.5" cy="48.5" r="6.5" fill="url(#paint1_linear)"/>
<circle cx="76.5" cy="48.5" r="6.5" fill="url(#paint2_linear)"/>
<circle cx="76.5" cy="48.5" r="6.5" fill="url(#paint3_linear)"/>
<circle cx="76.5" cy="48.5" r="6.5" fill="url(#paint4_linear)"/>
<path fill-rule="evenodd" clip-rule="evenodd" d="M89.5 56C89.5 55.1716 90.1716 54.5 91 54.5H105C105.828 54.5 106.5 55.1716 106.5 56V70.5C106.5 71.3284 105.828 72 105 72C104.172 72 103.5 71.3284 103.5 70.5V59.6213L89.7678 73.3536C88.7915 74.3299 87.2085 74.3299 86.2322 73.3536L81 68.1213L71.0607 78.0607C70.4749 78.6464 69.5251 78.6464 68.9393 78.0607C68.3536 77.4749 68.3536 76.5251 68.9393 75.9393L79.2322 65.6464C80.2085 64.6701 81.7915 64.6701 82.7678 65.6464L88 70.8787L101.379 57.5H91C90.1716 57.5 89.5 56.8284 89.5 56Z" fill="#4D4D4D"/>
<defs>
<linearGradient id="paint0_linear" x1="85.5" y1="-4.5" x2="-82" y2="94" gradientUnits="userSpaceOnUse">
<stop offset="0.0677083" stop-color="#3FE682"/>
<stop offset="1" stop-color="#4A24E2"/>
</linearGradient>
<linearGradient id="paint1_linear" x1="76.5" y1="42" x2="76.5" y2="55" gradientUnits="userSpaceOnUse">
<stop offset="0.0677083" stop-color="#3FE682"/>
<stop offset="1" stop-color="#4A24E2"/>
</linearGradient>
<linearGradient id="paint2_linear" x1="64.5" y1="44.5" x2="23" y2="109" gradientUnits="userSpaceOnUse">
<stop offset="0.0677083" stop-color="#3FE682"/>
<stop offset="1" stop-color="#4A24E2"/>
</linearGradient>
<linearGradient id="paint3_linear" x1="69" y1="41.5" x2="23" y2="109" gradientUnits="userSpaceOnUse">
<stop stop-color="#3FE682"/>
<stop offset="1" stop-color="#4A24E2"/>
</linearGradient>
<linearGradient id="paint4_linear" x1="83" y1="15.4583" x2="83" y2="117.292" gradientUnits="userSpaceOnUse">
<stop offset="0.307026" stop-color="#24C163"/>
<stop offset="1" stop-color="#4A24E2"/>
</linearGradient>
</defs>
</svg>
